{
  "min_price": "100",
  "max_price": "600",
  "pizza_base": [{
      "value": "THIN_CRUST",
      "title": "Thin Crust"
    }, {
      "value": "REGULAR_CRUST",
      "title": "Regular Crust"
    },
    {
      "value": "CHEESE_CRUST",
      "title": "Cheese Crust"
    }
  ],
  "pizza_type": [{
      "value": "CHEESE_BURST",
      "title": "Cheese Burst"
    },
    {
      "value": "CHEESE_TOPPING",
      "title": "Cheese Topping"
    },
    {
      "value": "CHICKEN_AND_CHEESE_TOPPINGS",
      "title": "Chichken and Cheese Toppings"
    }
  ]
}
